\relax 
\providecommand\hyper@newdestlabel[2]{}
\providecommand\HyperFirstAtBeginDocument{\AtBeginDocument}
\HyperFirstAtBeginDocument{\ifx\hyper@anchor\@undefined
\global\let\oldcontentsline\contentsline
\gdef\contentsline#1#2#3#4{\oldcontentsline{#1}{#2}{#3}}
\global\let\oldnewlabel\newlabel
\gdef\newlabel#1#2{\newlabelxx{#1}#2}
\gdef\newlabelxx#1#2#3#4#5#6{\oldnewlabel{#1}{{#2}{#3}}}
\AtEndDocument{\ifx\hyper@anchor\@undefined
\let\contentsline\oldcontentsline
\let\newlabel\oldnewlabel
\fi}
\fi}
\global\let\hyper@last\relax 
\gdef\HyperFirstAtBeginDocument#1{#1}
\providecommand\HyField@AuxAddToFields[1]{}
\providecommand\HyField@AuxAddToCoFields[2]{}
\@writefile{toc}{\contentsline {section}{\numberline {1}Changelog}{3}{section.1}}
\@writefile{toc}{\contentsline {section}{\numberline {2}Overview}{4}{section.2}}
\@writefile{toc}{\contentsline {subsection}{\numberline {2.1}Game Design}{4}{subsection.2.1}}
\@writefile{toc}{\contentsline {subsection}{\numberline {2.2}Key Features}{4}{subsection.2.2}}
\@writefile{toc}{\contentsline {subsection}{\numberline {2.3}Future Plans}{4}{subsection.2.3}}
\@writefile{toc}{\contentsline {subsection}{\numberline {2.4}Story}{5}{subsection.2.4}}
\@writefile{toc}{\contentsline {subsubsection}{\numberline {2.4.1}Beginning}{5}{subsubsection.2.4.1}}
\@writefile{toc}{\contentsline {subsubsection}{\numberline {2.4.2}Progression}{5}{subsubsection.2.4.2}}
\@writefile{toc}{\contentsline {subsubsection}{\numberline {2.4.3}Ending}{5}{subsubsection.2.4.3}}
\@writefile{toc}{\contentsline {section}{\numberline {3}Gameplay}{6}{section.3}}
\@writefile{toc}{\contentsline {subsection}{\numberline {3.1}Overview}{6}{subsection.3.1}}
\@writefile{toc}{\contentsline {subsubsection}{\numberline {3.1.1}Character}{6}{subsubsection.3.1.1}}
\@writefile{toc}{\contentsline {subsubsection}{\numberline {3.1.2}Dimensions}{6}{subsubsection.3.1.2}}
\@writefile{toc}{\contentsline {subsubsection}{\numberline {3.1.3}Interface}{7}{subsubsection.3.1.3}}
\@writefile{toc}{\contentsline {subsubsection}{\numberline {3.1.4}Menu}{7}{subsubsection.3.1.4}}
\@writefile{toc}{\contentsline {subsection}{\numberline {3.2}User Skills}{8}{subsection.3.2}}
\@writefile{toc}{\contentsline {subsection}{\numberline {3.3}Game Mechanics}{9}{subsection.3.3}}
\newlabel{gameMechanics}{{3.3}{9}{Game Mechanics}{subsection.3.3}{}}
\@writefile{toc}{\contentsline {subsection}{\numberline {3.4}Map and Levels}{12}{subsection.3.4}}
\@writefile{toc}{\contentsline {subsection}{\numberline {3.5}Progression and Challenge}{12}{subsection.3.5}}
\@writefile{toc}{\contentsline {subsubsection}{\numberline {3.5.1}FlowChart}{13}{subsubsection.3.5.1}}
\@writefile{lof}{\contentsline {figure}{\numberline {1}{\ignorespaces FlowChart}}{13}{figure.1}}
\newlabel{fig:flowchart}{{1}{13}{FlowChart}{figure.1}{}}
\@writefile{toc}{\contentsline {subsubsection}{\numberline {3.5.2}Player Experience}{14}{subsubsection.3.5.2}}
\@writefile{toc}{\contentsline {subsection}{\numberline {3.6}Saving}{14}{subsection.3.6}}
\@writefile{toc}{\contentsline {subsection}{\numberline {3.7}Losing}{14}{subsection.3.7}}
\@writefile{toc}{\contentsline {section}{\numberline {4}Art Style}{15}{section.4}}
\@writefile{toc}{\contentsline {subsection}{\numberline {4.1}Art Bible}{15}{subsection.4.1}}
\@writefile{toc}{\contentsline {subsection}{\numberline {4.2}Concept Art Overview}{15}{subsection.4.2}}
\@writefile{lof}{\contentsline {figure}{\numberline {2}{\ignorespaces Example of the Concept Art}}{15}{figure.2}}
\newlabel{fig:island}{{2}{15}{Example of the Concept Art}{figure.2}{}}
\@writefile{toc}{\contentsline {section}{\numberline {5}Animations}{16}{section.5}}
\@writefile{toc}{\contentsline {subsection}{\numberline {5.1}Animation Types}{16}{subsection.5.1}}
\@writefile{toc}{\contentsline {section}{\numberline {6}Music and Sounds}{17}{section.6}}
\@writefile{toc}{\contentsline {subsection}{\numberline {6.1}Sound Styles}{17}{subsection.6.1}}
\@writefile{toc}{\contentsline {subsection}{\numberline {6.2}Sounds List}{17}{subsection.6.2}}
\@writefile{toc}{\contentsline {subsection}{\numberline {6.3}Musics List}{17}{subsection.6.3}}
\@writefile{toc}{\contentsline {section}{\numberline {7}Technical Spec}{18}{section.7}}
\@writefile{toc}{\contentsline {subsection}{\numberline {7.1}Development Platform and Tools}{18}{subsection.7.1}}
\@writefile{toc}{\contentsline {subsection}{\numberline {7.2}Game Engine}{18}{subsection.7.2}}
\@writefile{toc}{\contentsline {subsubsection}{\numberline {7.2.1}Collision Detection}{18}{subsubsection.7.2.1}}
\@writefile{toc}{\contentsline {subsection}{\numberline {7.3}Light}{18}{subsection.7.3}}
\@writefile{toc}{\contentsline {subsection}{\numberline {7.4}Rendering System}{18}{subsection.7.4}}
\@writefile{toc}{\contentsline {subsubsection}{\numberline {7.4.1}3D Rendering}{18}{subsubsection.7.4.1}}
\@writefile{toc}{\contentsline {subsubsection}{\numberline {7.4.2}Camera}{18}{subsubsection.7.4.2}}
\@writefile{toc}{\contentsline {section}{\numberline {8}Platform and Audience}{19}{section.8}}
\@writefile{lof}{\contentsline {figure}{\numberline {3}{\ignorespaces Creative Commons License}}{19}{figure.3}}
\newlabel{fig:CC}{{3}{19}{Creative Commons License}{figure.3}{}}
\@writefile{toc}{\contentsline {section}{\numberline {9}Similar Games}{19}{section.9}}
\@writefile{toc}{\contentsline {section}{\numberline {10}Writing}{20}{section.10}}
\@writefile{toc}{\contentsline {subsection}{\numberline {10.1}Script}{20}{subsection.10.1}}
\@writefile{toc}{\contentsline {subsection}{\numberline {10.2}Game Tutorial and Manual}{20}{subsection.10.2}}
\@writefile{toc}{\contentsline {subsubsection}{\numberline {10.2.1}System Requirements}{20}{subsubsection.10.2.1}}
\@writefile{toc}{\contentsline {subsubsection}{\numberline {10.2.2}Installation Instructions}{20}{subsubsection.10.2.2}}
\@writefile{lof}{\contentsline {figure}{\numberline {4}{\ignorespaces Game Icon}}{20}{figure.4}}
\newlabel{fig:gameIcon}{{4}{20}{Game Icon}{figure.4}{}}
\@writefile{toc}{\contentsline {subsubsection}{\numberline {10.2.3}How To Play}{21}{subsubsection.10.2.3}}
\@writefile{lof}{\contentsline {figure}{\numberline {5}{\ignorespaces Keyboard Controls}}{21}{figure.5}}
\newlabel{fig:keyboard}{{5}{21}{Keyboard Controls}{figure.5}{}}
\@writefile{lof}{\contentsline {figure}{\numberline {6}{\ignorespaces Controller Controls}}{21}{figure.6}}
\newlabel{fig:controller}{{6}{21}{Controller Controls}{figure.6}{}}
\@writefile{toc}{\contentsline {section}{\numberline {11}Walkthrough}{22}{section.11}}
\@writefile{toc}{\contentsline {subsection}{\numberline {11.1}Levels' Solutions}{22}{subsection.11.1}}
